﻿/osver:6.2
/appcontainer
"/runtime:mrt100_app"
/eh:clr
/pdb
"/nativeLink:C:\Users\Robert Foster\.nuget\packages\runtime.win10-x64.microsoft.net.native.compiler\2.2.3\tools\x64\ilc\lib\Native\vmath.lib"
/customImports
/methodBodyFolding
"C:\Users\Robert Foster\source\repos\Truck\Truck\obj\x64\Release\ilc\intermediate\MDIL\Truck.mdilexe"
"/i:C:\Users\Robert Foster\source\repos\Truck\Truck\obj\x64\Release\ilc\intermediate\MDIL"
"/out:C:\Users\Robert Foster\source\repos\Truck\Truck\obj\x64\Release\ilc\intermediate\Native\Truck.exe"
"/pdbAltPath:C:\Users\Robert Foster\source\repos\Truck\Truck\bin\x64\Release\ilc"
"/res:C:\Users\Robert Foster\source\repos\Truck\Truck\obj\x64\Release\ilc\intermediate\Native.res"
"/i:C:\Users\Robert Foster\.nuget\packages\runtime.win10-x64.microsoft.net.native.sharedlibrary\2.2.3\tools\SharedLibrary\ret\MDIL"
/shimexe
"/classlib:SharedLibrary"
"/sourcelink:C:\Users\Robert Foster\source\repos\Truck\Truck\obj\x64\Release\ilc\intermediate\ILTransformed\Microsoft.Toolkit.Parsers.srclink"
"/sourcelink:C:\Users\Robert Foster\source\repos\Truck\Truck\obj\x64\Release\ilc\intermediate\ILTransformed\Microsoft.Toolkit.srclink"
"/sourcelink:C:\Users\Robert Foster\source\repos\Truck\Truck\obj\x64\Release\ilc\intermediate\ILTransformed\Microsoft.Toolkit.Uwp.srclink"
"/sourcelink:C:\Users\Robert Foster\source\repos\Truck\Truck\obj\x64\Release\ilc\intermediate\ILTransformed\Microsoft.Toolkit.Uwp.UI.Animations.srclink"
"/sourcelink:C:\Users\Robert Foster\source\repos\Truck\Truck\obj\x64\Release\ilc\intermediate\ILTransformed\Microsoft.Toolkit.Uwp.UI.Controls.srclink"
"/sourcelink:C:\Users\Robert Foster\source\repos\Truck\Truck\obj\x64\Release\ilc\intermediate\ILTransformed\Microsoft.Toolkit.Uwp.UI.srclink"
